{
  "project_info": {
    "project_number": "681471432979",
    "firebase_url": "https://betgroup-db0a6.firebaseio.com",
    "project_id": "betgroup-db0a6",
    "storage_bucket": "betgroup-db0a6.appspot.com"
  },
  "client": [
    {
      "client_info": {
        "mobilesdk_app_id": "1:681471432979:android:29bb884d9f5709d8",
        "android_client_info": {
          "package_name": "com.example.betgroup"
        }
      },
      "oauth_client": [
        {
          "client_id": "681471432979-f37ujer9b5qq3tdi8mvtk6jf2nsagqad.apps.googleusercontent.com",
          "client_type": 1,
          "android_info": {
            "package_name": "com.example.betgroup",
            "certificate_hash": "76d4dc0c13663571253cdde19bdc4e33832703db"
          }
        },
        {
          "client_id": "681471432979-k663lgsggnbp7uok1vk31ggrfotlr381.apps.googleusercontent.com",
          "client_type": 3
        }
      ],
      "api_key": [
        {
          "current_key": "AIzaSyDEed4sFnHmpS96Qh4VuakLFr14e7iPWXQ"
        }
      ],
      "services": {
        "analytics_service": {
          "status": 1
        },
        "appinvite_service": {
          "status": 2,
          "other_platform_oauth_client": [
            {
              "client_id": "681471432979-k663lgsggnbp7uok1vk31ggrfotlr381.apps.googleusercontent.com",
              "client_type": 3
            }
          ]
        },
        "ads_service": {
          "status": 2
        }
      }
    }
  ],
  "configuration_version": "1"
}